<?xml version="1.0" encoding="UTF-8"?>
<svg width="52px" height="52px" viewBox="0 0 52 52" version="1.1" xmlns="http://www.w3.org/2000/svg" xmlns:xlink="http://www.w3.org/1999/xlink">
    <!-- Generator: Sketch 43.2 (39069) - http://www.bohemiancoding.com/sketch -->
    <title>Group</title>
    <desc>Created with Sketch.</desc>
    <defs>
        <circle id="path-1" cx="26" cy="26" r="26"></circle>
        <path d="M21.1880698,0 L4.87386039,0 C2.18665264,0 0,2.18261184 0,4.875 C0,7.56190969 2.18210162,9.75 4.87386039,9.75 L22.1261396,9.75 C22.7897507,9.75 23.4228352,9.61689289 24,9.37587229 L24,2.25 L20.25,2.25 L20.25,0 L21.1880698,0 Z" id="path-3"></path>
    </defs>
    <g id="Page-1" stroke="none" stroke-width="1" fill="none" fill-rule="evenodd">
        <g id="Article---Description" transform="translate(-16.000000, -1562.000000)">
            <g id="Group" transform="translate(16.000000, 1562.000000)">
                <g id="article-1">
                    <mask id="mask-2" fill="white">
                        <use xlink:href="#path-1"></use>
                    </mask>
                    <use id="Mask" fill="#389CD2" xlink:href="#path-1"></use>
                    <rect id="Rectangle-526" fill="#FFFFFF" mask="url(#mask-2)" x="15" y="20.3571429" width="22" height="18.2900009"></rect>
                    <g id="book-3" mask="url(#mask-2)">
                        <g transform="translate(13.142857, 13.071429)" id="Layer_1">
                            <g>
                                <path d="M22.2857143,0 L5.14285714,0 C2.29714286,0 0,2.26125 0,5.0625 L0,21.9375 C0,24.73875 2.29714286,27 5.14285714,27 L22.2857143,27 C23.2337143,27 24,26.2456875 24,25.3125 L24,1.6875 C24,0.7543125 23.2337143,0 22.2857143,0 L22.2857143,0 Z M2.25,22.5568938 L2.25,8.20962524 C2.89282488,8.20962521 3.47166027,7.80514526 4.1615196,7.80514526 L11.9786224,8.43347168 L11.9786214,18.1875 C11.9786214,18.705 12.2717628,18.81375 12.6313495,18.429375 L14.910035,16.00125 L17.1887205,18.429375 C17.5483072,18.81375 17.8414486,18.705 17.8414486,18.1875 L17.8414493,9.08001709 L21.75,9.75 L21.75,24.75 L4.16151859,24.75 C3.08666695,24.75 2.25,23.5881438 2.25,22.5568938 Z" id="Book_3" fill="#15191F"></path>
                                <g id="Combined-Shape">
                                    <use fill="#FFFFFF" fill-rule="evenodd" xlink:href="#path-3"></use>
                                    <path stroke="#15191F" stroke-width="3" d="M18.75,1.5 L18.75,2.25 L18.75,3.75 L20.25,3.75 L22.5,3.75 L22.5,8.229555 C22.3767335,8.24313281 22.2519944,8.25 22.1261396,8.25 L4.87386039,8.25 C3.01275819,8.25 1.5,6.73571354 1.5,4.875 C1.5,3.01274815 3.01337,1.5 4.87386039,1.5 L18.75,1.5 Z"></path>
                                </g>
                                <rect id="Rectangle-525" fill="#FFFFFF" x="16.5" y="2.99851772" width="5.25" height="3.75"></rect>
                            </g>
                        </g>
                    </g>
                </g>
            </g>
        </g>
    </g>
</svg>