<?xml version="1.0" encoding="UTF-8"?>
<svg width="52px" height="52px" viewBox="0 0 52 52" version="1.1" xmlns="http://www.w3.org/2000/svg" xmlns:xlink="http://www.w3.org/1999/xlink">
    <!-- Generator: Sketch 43.2 (39069) - http://www.bohemiancoding.com/sketch -->
    <title>Group</title>
    <desc>Created with Sketch.</desc>
    <defs>
        <circle id="path-1" cx="26" cy="26" r="26"></circle>
    </defs>
    <g id="Page-1" stroke="none" stroke-width="1" fill="none" fill-rule="evenodd">
        <g id="Article---Description" transform="translate(-16.000000, -1842.000000)">
            <g id="Group" transform="translate(16.000000, 1842.000000)">
                <g id="article-1">
                    <mask id="mask-2" fill="white">
                        <use xlink:href="#path-1"></use>
                    </mask>
                    <use id="Mask" fill="#006992" xlink:href="#path-1"></use>
                    <rect id="Rectangle-524" fill="#FFFFFF" mask="url(#mask-2)" x="15" y="17" width="22" height="21.2666667"></rect>
                    <g id="wrench-2" mask="url(#mask-2)">
                        <g transform="translate(22.000000, 25.000000)" id="Layer_1">
                            <g>
                                <path d="M8.89898033,7.97727705 C8.71723602,8.15902136 8.57443692,8.30182046 8.57443692,8.30182046 L7.97727705,8.89898033 C7.8020236,9.07488286 7.45151672,9.01581596 7.19837286,8.7626721 L2.88194549,4.4527356 C2.68721944,4.50466255 2.48600253,4.54360776 2.27180388,4.54360776 C1.01906631,4.54360776 0,3.52454144 0,2.27180388 C0,1.91480613 0.29208907,1.62271706 0.649086822,1.62271706 C1.00608457,1.62271706 1.29817364,1.91480613 1.29817364,2.27180388 C1.29817364,2.81054594 1.73306182,3.24543411 2.27180388,3.24543411 C2.33022169,3.24543411 2.38863951,3.23894324 2.44705732,3.22596151 C2.46652992,3.22596151 2.47951166,3.22596151 2.4924934,3.21947064 C2.54442034,3.2064889 2.58985642,3.19350717 2.6352925,3.17403456 C2.66125597,3.16754369 2.68072858,3.15456196 2.70669205,3.13508935 C2.89492723,3.05070806 3.05070806,2.89492723 3.13508935,2.70669205 C3.15456196,2.68072858 3.16754369,2.66125597 3.17403456,2.6352925 C3.19350717,2.58985642 3.2064889,2.54442034 3.21947064,2.4924934 C3.22596151,2.47951166 3.22596151,2.46652992 3.22596151,2.44705732 C3.23894324,2.38863951 3.24543411,2.33022169 3.24543411,2.27180388 C3.24543411,1.73306182 2.81054594,1.29817364 2.27180388,1.29817364 C1.91480613,1.29817364 1.62271706,1.00608457 1.62271706,0.649086822 C1.62271706,0.29208907 1.91480613,0 2.27180388,0 C3.52454144,0 4.54360776,1.01906631 4.54360776,2.27180388 C4.54360776,2.48600253 4.50466255,2.68721944 4.4527356,2.88194549 L8.7626721,7.19772377 C9.01581596,7.45151672 9.07423378,7.8020236 8.89898033,7.97727705 L8.89898033,7.97727705 Z" id="Wrench_2_x2C__Tool_2" fill="#15191F"></path>
                            </g>
                        </g>
                    </g>
                    <g id="browser-1" mask="url(#mask-2)">
                        <g transform="translate(14.000000, 15.000000)" id="Layer_1">
                            <g>
                                <path d="M22.5,0 L1.5,0 C0.675,0 0,0.675 0,1.5 L0,22.5 C0,23.325 0.675,24 1.5,24 L22.5,24 C23.325,24 24,23.325 24,22.5 L24,1.5 C24,0.675 23.325,0 22.5,0 L22.5,0 Z M2.25,2.25 L5.25,2.25 L5.25,5.25 L2.25,5.25 L2.25,2.25 L2.25,2.25 Z M21.75,21.75 L2.25,21.75 L2.25,7.5 L21.75,7.5 L21.75,21.75 L21.75,21.75 Z M21.75,5.25 L7.5,5.25 L7.5,2.25 L21.75,2.25 L21.75,5.25 L21.75,5.25 Z" id="Browser_1" fill="#15191F"></path>
                            </g>
                        </g>
                    </g>
                </g>
            </g>
        </g>
    </g>
</svg>